{
    "common": [
      {
        "company": [
          {
            "id": 1,
            "designation": "DefaultCompany",
            "prefix": "DC",
            "group_mode": false
          }
        ]
      },
      {
        "articlecategory": [
          {
            "id": 1,
            "designation": "DefaultCompany",
            "prefix": "DC",
            "group_mode": false
          }
        ]
      },
    ]
  }
