[
  {
    "id": "1",
    "designation": "Transfert Entre Magasins",
    "difficulty_level": null,
    "description": "",
    "point_line_execution": null,
    "point_line_typing": null,
    "point_line_control": null,
    "point_sku_execution": null,
    "point_sku_control": null,
    "point_package_execution": null,
    "point_package_validation": null,
    "point_palette_execution": null,
    "point_palette_control": null
  },
  {
    "id": "2",
    "designation": "Entreposage",
    "difficulty_level": null,
    "description": "",
    "point_line_execution": null,
    "point_line_typing": null,
    "point_line_control": null,
    "point_sku_execution": null,
    "point_sku_control": null,
    "point_package_execution": null,
    "point_package_validation": null,
    "point_palette_execution": null,
    "point_palette_control": null
  },
  {
    "id": "3",
    "designation": "Vente Colis Complets",
    "difficulty_level": null,
    "description": "",
    "point_line_execution": null,
    "point_line_typing": null,
    "point_line_control": null,
    "point_sku_execution": null,
    "point_sku_control": null,
    "point_package_execution": null,
    "point_package_validation": null,
    "point_palette_execution": null,
    "point_palette_control": null
  },
  {
    "id": "4",
    "designation": "Changement Statut Produit",
    "difficulty_level": null,
    "description": "",
    "point_line_execution": null,
    "point_line_typing": null,
    "point_line_control": null,
    "point_sku_execution": null,
    "point_sku_control": null,
    "point_package_execution": null,
    "point_package_validation": null,
    "point_palette_execution": null,
    "point_palette_control": null
  },
  {
    "id": "5",
    "designation": "Etalage",
    "difficulty_level": null,
    "description": "",
    "point_line_execution": null,
    "point_line_typing": null,
    "point_line_control": null,
    "point_sku_execution": null,
    "point_sku_control": null,
    "point_package_execution": null,
    "point_package_validation": null,
    "point_palette_execution": null,
    "point_palette_control": null
  },
  {
    "id": "6",
    "designation": "Transfert Entre Filiales",
    "difficulty_level": null,
    "description": "",
    "point_line_execution": null,
    "point_line_typing": null,
    "point_line_control": null,
    "point_sku_execution": null,
    "point_sku_control": null,
    "point_package_execution": null,
    "point_package_validation": null,
    "point_palette_execution": null,
    "point_palette_control": null
  },
  {
    "id": "7",
    "designation": "R\u00e9ception des Achats",
    "difficulty_level": null,
    "description": "",
    "point_line_execution": null,
    "point_line_typing": null,
    "point_line_control": null,
    "point_sku_execution": null,
    "point_sku_control": null,
    "point_package_execution": null,
    "point_package_validation": null,
    "point_palette_execution": null,
    "point_palette_control": null
  },
  {
    "id": "8",
    "designation": "Exp\u00e9dition des Transfert Entre Filiale",
    "difficulty_level": null,
    "description": "",
    "point_line_execution": null,
    "point_line_typing": null,
    "point_line_control": null,
    "point_sku_execution": null,
    "point_sku_control": null,
    "point_package_execution": null,
    "point_package_validation": null,
    "point_palette_execution": null,
    "point_palette_control": null
  },
  {
    "id": "9",
    "designation": "R\u00e9ception des Transferts Entre Filiales",
    "difficulty_level": null,
    "description": "",
    "point_line_execution": null,
    "point_line_typing": null,
    "point_line_control": null,
    "point_sku_execution": null,
    "point_sku_control": null,
    "point_package_execution": null,
    "point_package_validation": null,
    "point_palette_execution": null,
    "point_palette_control": null
  },
  {
    "id": "10",
    "designation": "Comptage physique des stock (Inventaire)",
    "difficulty_level": null,
    "description": "",
    "point_line_execution": null,
    "point_line_typing": null,
    "point_line_control": null,
    "point_sku_execution": null,
    "point_sku_control": null,
    "point_package_execution": null,
    "point_package_validation": null,
    "point_palette_execution": null,
    "point_palette_control": null
  }
]