[
  {
    "designation": "Principal",
    "storage_type_id": "2"
  },
  {
    "designation": "Reserve",
    "storage_type_id": "3"
  },
  {
    "designation": "Pr\u00e9paration",
    "storage_type_id": "1"
  },
  {
    "designation": "Psycotropes",
    "storage_type_id": "1"
  },
  {
    "designation": "Non Vendable",
    "storage_type_id": "1"
  }
]
